D:\seucaio\Repositorio\2TDS\EAD\Wokspace\06-JPA-Relacionamentos\src\br\com\fiap\jpa\dao\impl\GenericDAOImpl.java
D:\seucaio\Repositorio\2TDS\EAD\Wokspace\06-JPA-Relacionamentos\src\br\com\fiap\jpa\entity\StatusPedido.java
D:\seucaio\Repositorio\2TDS\EAD\Wokspace\06-JPA-Relacionamentos\src\br\com\fiap\jpa\exception\KeyNotFoundException.java
D:\seucaio\Repositorio\2TDS\EAD\Wokspace\06-JPA-Relacionamentos\src\br\com\fiap\jpa\dao\GenericDAO.java
D:\seucaio\Repositorio\2TDS\EAD\Wokspace\06-JPA-Relacionamentos\src\br\com\fiap\jpa\dao\impl\PedidoDAOImpl.java
D:\seucaio\Repositorio\2TDS\EAD\Wokspace\06-JPA-Relacionamentos\src\br\com\fiap\jpa\dao\PedidoDAO.java
D:\seucaio\Repositorio\2TDS\EAD\Wokspace\06-JPA-Relacionamentos\src\br\com\fiap\jpa\teste\BuscaTeste.java
D:\seucaio\Repositorio\2TDS\EAD\Wokspace\06-JPA-Relacionamentos\src\br\com\fiap\jpa\singleton\EntityManagerFactorySingleton.java
D:\seucaio\Repositorio\2TDS\EAD\Wokspace\06-JPA-Relacionamentos\src\br\com\fiap\jpa\dao\impl\NotaFiscalDAOImpl.java
D:\seucaio\Repositorio\2TDS\EAD\Wokspace\06-JPA-Relacionamentos\src\br\com\fiap\jpa\entity\ItemPedido.java
D:\seucaio\Repositorio\2TDS\EAD\Wokspace\06-JPA-Relacionamentos\src\br\com\fiap\jpa\entity\Pedido.java
D:\seucaio\Repositorio\2TDS\EAD\Wokspace\06-JPA-Relacionamentos\src\br\com\fiap\jpa\dao\NotaFiscalDAO.java
D:\seucaio\Repositorio\2TDS\EAD\Wokspace\06-JPA-Relacionamentos\src\br\com\fiap\jpa\entity\NotaFiscal.java
D:\seucaio\Repositorio\2TDS\EAD\Wokspace\06-JPA-Relacionamentos\src\br\com\fiap\jpa\teste\CadastroTeste.java
D:\seucaio\Repositorio\2TDS\EAD\Wokspace\06-JPA-Relacionamentos\src\br\com\fiap\jpa\entity\Imposto.java
D:\seucaio\Repositorio\2TDS\EAD\Wokspace\06-JPA-Relacionamentos\src\br\com\fiap\jpa\exception\CommitException.java
